{
    "KPlugin": {
        "BugReportUrl": "https://bugs.kde.org/enter_bug.cgi?product=libkcddb",
        "Description": "Configure the CDDB Retrieval",
        "Description[ar]": "اضبط جلب CDDB",
        "Description[bg]": "Настройки на изтегляне на данни от CDDB",
        "Description[ca@valencia]": "Configura la recuperació CDDB",
        "Description[ca]": "Configura la recuperació CDDB",
        "Description[cs]": "Nastavení stahování z CDDB",
        "Description[en_GB]": "Configure the CDDB Retrieval",
        "Description[es]": "Configurar la recuperación de CDDB",
        "Description[eu]": "Konfiguratu CDDB berreskuratzea",
        "Description[fr]": "Configurer la recherche « CDDB »",
        "Description[ia]": "Configura le Recuperation de CDDB",
        "Description[is]": "Stilla CDDB-sækni",
        "Description[it]": "Configura il recupero CDDB",
        "Description[ka]": "CDDB-ის მიღების მორგება",
        "Description[ko]": "CDDB 가져오기 설정",
        "Description[nl]": "Ophalen van CDDB-informatie instellen",
        "Description[nn]": "Oppsett av CDDB-henting",
        "Description[pt]": "Configurar a Transferência de CDDB",
        "Description[pt_BR]": "Configure a recuperação do CDDB",
        "Description[ru]": "Настройка получения сведений из CDDB",
        "Description[sl]": "Konfiguriraj pridobivanje CDDB",
        "Description[tr]": "CDDB Alımını Yapılandır",
        "Description[uk]": "Налаштування отримання з CDDB",
        "Description[x-test]": "xxConfigure the CDDB Retrievalxx",
        "Description[zh_CN]": "配置 CDDB 数据获取功能",
        "Icon": "media-optical-audio",
        "Name": "CDDB Retrieval",
        "Name[ar]": "جلب CDDB",
        "Name[bg]": "Изтегляне на данни от CDDB",
        "Name[bs]": "Dobavljanje iz CDDB‑a",
        "Name[ca@valencia]": "Recuperació CDDB",
        "Name[ca]": "Recuperació CDDB",
        "Name[cs]": "Získání CDDB",
        "Name[da]": "CDDB-hentning",
        "Name[de]": "CDDB-Abfrage",
        "Name[el]": "Ανάκτηση CDDB",
        "Name[en_GB]": "CDDB Retrieval",
        "Name[es]": "Recuperación de CDDB",
        "Name[et]": "CDDB ülekanded",
        "Name[eu]": "CDDB berreskuratzea",
        "Name[fi]": "CDDB-haku",
        "Name[fr]": "Recherche « CDDB »",
        "Name[ga]": "Aisghabháil CDDB",
        "Name[gl]": "Obtención CDDB",
        "Name[hu]": "CDDB letöltés",
        "Name[ia]": "Recuperationde CDDB",
        "Name[is]": "CDDB-sækni",
        "Name[it]": "Recupero CDDB",
        "Name[ja]": "CDDB 検索",
        "Name[ka]": "CDDB მიღება",
        "Name[kk]": "CDDB деректерді алу",
        "Name[km]": "កា​រទៅ​យក CDDB",
        "Name[ko]": "CDDB 가져오기",
        "Name[lt]": "CDDB atsisiuntimas",
        "Name[mr]": "CDDB पुन्हा-प्राप्ती",
        "Name[nb]": "CDDB-henting",
        "Name[nds]": "CDDB-Affraag",
        "Name[nl]": "CDDB-informatie",
        "Name[nn]": "CDDB-henting",
        "Name[pa]": "CDDB ਪ੍ਰਾਪਤੀ",
        "Name[pl]": "Pobieranie z CDDB",
        "Name[pt]": "Transferência de CDDB",
        "Name[pt_BR]": "Recuperação do CDDB",
        "Name[ro]": "Preluare CDDB",
        "Name[ru]": "Доступ к CDDB",
        "Name[sk]": "Informácie z CDDB",
        "Name[sl]": "Pridobivanje CDDB",
        "Name[sr@ijekavian]": "Добављање из ЦДДБ‑а",
        "Name[sr@ijekavianlatin]": "Dobavljanje iz CDDB‑a",
        "Name[sr@latin]": "Dobavljanje iz CDDB‑a",
        "Name[sr]": "Добављање из ЦДДБ‑а",
        "Name[sv]": "Hämta från CDDB",
        "Name[tr]": "CDDB Erişimi",
        "Name[uk]": "Отримання з CDDB",
        "Name[x-test]": "xxCDDB Retrievalxx",
        "Name[zh_CN]": "CDDB 数据获取",
        "Name[zh_TW]": "CDDB 取得資訊",
        "ServiceTypes": [
            "KCModule"
        ]
    },
    "Keywords": "cddb;",
    "Keywords[ar]": "أقراص;",
    "Keywords[bg]": "cddb;данни;диск;",
    "Keywords[bs]": "cddb;",
    "Keywords[ca@valencia]": "cddb;",
    "Keywords[ca]": "cddb;",
    "Keywords[cs]": "cddb;",
    "Keywords[da]": "cddb;",
    "Keywords[de]": "cddb;",
    "Keywords[el]": "cddb;",
    "Keywords[en_GB]": "cddb;",
    "Keywords[es]": "cddb;",
    "Keywords[et]": "cddb;",
    "Keywords[eu]": "cddb;",
    "Keywords[fi]": "cddb;",
    "Keywords[fr]": "cddb ;",
    "Keywords[ga]": "cddb;",
    "Keywords[gl]": "cddb;",
    "Keywords[hu]": "cddb;",
    "Keywords[ia]": "cddb;",
    "Keywords[is]": "cddb;",
    "Keywords[it]": "cddb;",
    "Keywords[ka]": "cddb;",
    "Keywords[kk]": "cddb;",
    "Keywords[ko]": "cddb;",
    "Keywords[mr]": "cddb;",
    "Keywords[nb]": "cddb;",
    "Keywords[nds]": "CDDB;cddb;",
    "Keywords[nl]": "cddb;",
    "Keywords[nn]": "cddb;",
    "Keywords[pl]": "cddb;",
    "Keywords[pt]": "cddb;",
    "Keywords[pt_BR]": "cddb;",
    "Keywords[ro]": "cddb;",
    "Keywords[ru]": "cddb;",
    "Keywords[sk]": "cddb;",
    "Keywords[sl]": "cddb;",
    "Keywords[sr@ijekavian]": "CDDB;ЦДДБ;",
    "Keywords[sr@ijekavianlatin]": "CDDB;CDDB;",
    "Keywords[sr@latin]": "CDDB;CDDB;",
    "Keywords[sr]": "CDDB;ЦДДБ;",
    "Keywords[sv]": "cddb;",
    "Keywords[tr]": "cddb;",
    "Keywords[ug]": "cddb;",
    "Keywords[uk]": "cddb;",
    "Keywords[x-test]": "xxcddbxx;",
    "Keywords[zh_CN]": "cddb;",
    "Keywords[zh_TW]": "cddb;",
    "X-DocPath": "kcontrol/cddbretrieval5/index.html",
    "X-KDE-System-Settings-Parent-Category": "audio-and-video"
}
